{
    "defaultSeverity": "error",
    "extends": ["tslint:latest", "tslint-eslint-rules", "tslint-config-prettier"],
    "jsRules": {},
    "rulesDirectory": ["tslint-plugin-prettier", "tslint-microsoft-contrib"],
    "linterOptions": {
      "exclude": ["src/**/*.spec.ts", "test/**/*.ts"]
    },
    "rules": {
      "prefer-conditional-expression": false,
      "no-extra-semi": true,
      "prettier": true,
      "object-literal-sort-keys": false,
      "no-implicit-dependencies": false,
      "max-classes-per-file": false,
      "member-ordering": false,
      "no-empty-interface": false,
      "no-submodule-imports": false,
      "no-object-literal-type-assertion": false,
      "no-switch-case-fall-through": false,
      "no-return-await": true,
      "no-floating-promises": true,
      "no-relative-imports": true
    }
  }
  